{
    "command": "swift-account-server /etc/swift/account-server.conf --verbose",
    "config_files": [
        {
            "source": "/var/lib/kolla/swift/account.ring.gz",
            "dest": "/etc/swift/account.ring.gz",
            "owner": "swift",
            "perm": "0640"
        },
        {
            "source": "/var/lib/kolla/config_files/swift.conf",
            "dest": "/etc/swift/swift.conf",
            "owner": "swift",
            "perm": "0640"
        },
        {
            "source": "/var/lib/kolla/config_files/account-replication-server.conf",
            "dest": "/etc/swift/account-server.conf",
            "owner": "swift",
            "perm": "0640"
        },
        {
            "source": "/var/lib/kolla/config_files/policy.json",
            "dest": "/etc/swift/policy.json",
            "owner": "swift",
            "perm": "0600",
            "optional": true
        }
    ]
}
