{
    "command": "swift-object-replicator /etc/swift/object-replicator.conf --verbose",
    "config_files": [
        {
            "source": "/var/lib/kolla/swift/container.ring.gz",
            "dest": "/etc/swift/container.ring.gz",
            "owner": "swift",
            "perm": "0640"
        },
        {
            "source": "/var/lib/kolla/swift/object.ring.gz",
            "dest": "/etc/swift/object.ring.gz",
            "owner": "swift",
            "perm": "0640"
        },
                {
            "source": "/var/lib/kolla/config_files/swift.conf",
            "dest": "/etc/swift/swift.conf",
            "owner": "swift",
            "perm": "0640"
        },
        {
            "source": "/var/lib/kolla/config_files/object-replicator.conf",
            "dest": "/etc/swift/object-replicator.conf",
            "owner": "swift",
            "perm": "0640"
        },
        {
            "source": "/var/lib/kolla/config_files/policy.json",
            "dest": "/etc/swift/policy.json",
            "owner": "swift",
            "perm": "0600",
            "optional": true
        }
    ]
}
